-------------------------------------------------------------------------------
Test set: com.avaliacao.scu.ScuApplicationTests
-------------------------------------------------------------------------------
Tests run: 1, Failures: 0, Errors: 0, Skipped: 0, Time elapsed: 4.628 s - in com.avaliacao.scu.ScuApplicationTests
